{
"instructions_readme": "1) Open Chrome, 2) go to chrome://tracing, 3) click Load, 4) navigate to this file.",
"traceEvents":[
{ "cat":"", "pid":1, "tid":0, "ts":0, "ph":"M", "name":"process_name", "args": { "name":"tundra" } }
,{ "pid":1, "tid":0, "ts":12364216080, "dur":718, "ph":"X", "name": "DriverCheckDagSignatures",  "args": { "durationMS":1, "detail":"" }}
,{ "pid":1, "tid":0, "ts":12364216799, "dur":788, "ph":"X", "name": "DriverInitData",  "args": { "durationMS":1, "detail":"" }}
,{ "pid":1, "tid":0, "ts":12364217810, "dur":19, "ph":"X", "name": "Tundra",  "args": { "durationMS":0, "detail":"PrepareNodes" }}
,{ "pid":1, "tid":0, "ts":12364217831, "dur":134, "ph":"X", "name": "Tundra",  "args": { "durationMS":0, "detail":"RemoveStaleOutputs" }}
,{ "pid":1, "tid":0, "ts":12364217971, "dur":935, "ph":"X", "name": "Tundra",  "args": { "durationMS":1, "detail":"BuildQueueInit" }}
,{ "pid":1, "tid":0, "ts":12416978101, "dur":21975, "ph":"X", "name": "JoinBuildThread",  "args": { "durationMS":22, "detail":"" }}
,{ "pid":1, "tid":0, "ts":12417000112, "dur":42, "ph":"X", "name": "JoinBuildThread",  "args": { "durationMS":0, "detail":"" }}
,{ "pid":1, "tid":0, "ts":12417000168, "dur":6, "ph":"X", "name": "JoinBuildThread",  "args": { "durationMS":0, "detail":"" }}
,{ "pid":1, "tid":0, "ts":12417000186, "dur":4, "ph":"X", "name": "JoinBuildThread",  "args": { "durationMS":0, "detail":"" }}
,{ "pid":1, "tid":0, "ts":12417000200, "dur":4, "ph":"X", "name": "JoinBuildThread",  "args": { "durationMS":0, "detail":"" }}
,{ "pid":1, "tid":0, "ts":12417000214, "dur":4, "ph":"X", "name": "JoinBuildThread",  "args": { "durationMS":0, "detail":"" }}
,{ "pid":1, "tid":0, "ts":12417000229, "dur":3, "ph":"X", "name": "JoinBuildThread",  "args": { "durationMS":0, "detail":"" }}
,{ "pid":1, "tid":0, "ts":12417000243, "dur":3, "ph":"X", "name": "JoinBuildThread",  "args": { "durationMS":0, "detail":"" }}
,{ "pid":1, "tid":0, "ts":12417000255, "dur":3, "ph":"X", "name": "JoinBuildThread",  "args": { "durationMS":0, "detail":"" }}
,{ "pid":1, "tid":0, "ts":12417000267, "dur":3, "ph":"X", "name": "JoinBuildThread",  "args": { "durationMS":0, "detail":"" }}
,{ "pid":1, "tid":0, "ts":12417000296, "dur":4, "ph":"X", "name": "JoinBuildThread",  "args": { "durationMS":0, "detail":"" }}
,{ "pid":1, "tid":0, "ts":12417000310, "dur":3, "ph":"X", "name": "JoinBuildThread",  "args": { "durationMS":0, "detail":"" }}
,{ "pid":1, "tid":0, "ts":12417000331, "dur":0, "ph":"X", "name": "SharedResourceDestroy",  "args": { "durationMS":0, "detail":"" }}
,{ "pid":1, "tid":0, "ts":12417000334, "dur":2149, "ph":"X", "name": "Tundra",  "args": { "durationMS":2, "detail":"Write AllBuiltNodes" }}
,{ "pid":1, "tid":1, "ts":12364219283, "dur":23, "ph":"X", "name": "CheckInputSignature",  "args": { "durationMS":0, "detail":"WriteResponseFile artifacts/rsp/10847602862722263614.rsp" }}
,{ "pid":1, "tid":1, "ts":12364219534, "dur":13853, "ph":"X", "name": "CheckInputSignature",  "args": { "durationMS":14, "detail":"Il2Cpp C:/Users/narut/Documents/unityhub/wedko_v2/wedko_game/Library/Il2cppBuildCache/WebGL/Native/build.bc" }}
,{ "pid":1, "tid":1, "ts":12364280358, "dur":52697615, "ph":"X", "name": "Il2Cpp",  "args": { "durationMS":52698, "detail":"C:/Users/narut/Documents/unityhub/wedko_v2/wedko_game/Library/Il2cppBuildCache/WebGL/Native/build.bc" }}
,{ "pid":1, "tid":1, "ts":12416978039, "dur":1, "ph":"X", "name": "CheckInputSignature",  "args": { "durationMS":0, "detail":"all_tundra_nodes" }}
,{ "pid":1, "tid":1, "ts":12416978044, "dur":63, "ph":"X", "name": "WaitingForWork", "cname":"thread_state_sleeping",  "args": { "durationMS":0, "detail":"" }}
,{ "pid":1, "tid":1, "ts":12416978110, "dur":21633, "ph":"X", "name": "Exiting",  "args": { "durationMS":22, "detail":"BuildLoop" }}
,{ "pid":1, "tid":2, "ts":12364219443, "dur":52758662, "ph":"X", "name": "WaitingForWork", "cname":"thread_state_sleeping",  "args": { "durationMS":52759, "detail":"" }}
,{ "pid":1, "tid":2, "ts":12416978106, "dur":21650, "ph":"X", "name": "Exiting",  "args": { "durationMS":22, "detail":"BuildLoop" }}
,{ "pid":1, "tid":3, "ts":12364219377, "dur":52758732, "ph":"X", "name": "WaitingForWork", "cname":"thread_state_sleeping",  "args": { "durationMS":52759, "detail":"" }}
,{ "pid":1, "tid":3, "ts":12416978108, "dur":21636, "ph":"X", "name": "Exiting",  "args": { "durationMS":22, "detail":"BuildLoop" }}
,{ "pid":1, "tid":4, "ts":12364219512, "dur":52758590, "ph":"X", "name": "WaitingForWork", "cname":"thread_state_sleeping",  "args": { "durationMS":52759, "detail":"" }}
,{ "pid":1, "tid":4, "ts":12416978106, "dur":21648, "ph":"X", "name": "Exiting",  "args": { "durationMS":22, "detail":"BuildLoop" }}
,{ "pid":1, "tid":5, "ts":12364219571, "dur":52758529, "ph":"X", "name": "WaitingForWork", "cname":"thread_state_sleeping",  "args": { "durationMS":52759, "detail":"" }}
,{ "pid":1, "tid":5, "ts":12416978100, "dur":21655, "ph":"X", "name": "Exiting",  "args": { "durationMS":22, "detail":"BuildLoop" }}
,{ "pid":1, "tid":6, "ts":12364219629, "dur":52758516, "ph":"X", "name": "WaitingForWork", "cname":"thread_state_sleeping",  "args": { "durationMS":52759, "detail":"" }}
,{ "pid":1, "tid":6, "ts":12416978146, "dur":21596, "ph":"X", "name": "Exiting",  "args": { "durationMS":22, "detail":"BuildLoop" }}
,{ "pid":1, "tid":7, "ts":12364219709, "dur":52758393, "ph":"X", "name": "WaitingForWork", "cname":"thread_state_sleeping",  "args": { "durationMS":52758, "detail":"" }}
,{ "pid":1, "tid":7, "ts":12416978101, "dur":21652, "ph":"X", "name": "Exiting",  "args": { "durationMS":22, "detail":"BuildLoop" }}
,{ "pid":1, "tid":8, "ts":12364219836, "dur":52758296, "ph":"X", "name": "WaitingForWork", "cname":"thread_state_sleeping",  "args": { "durationMS":52758, "detail":"" }}
,{ "pid":1, "tid":8, "ts":12416978132, "dur":21609, "ph":"X", "name": "Exiting",  "args": { "durationMS":22, "detail":"BuildLoop" }}
,{ "pid":1, "tid":9, "ts":12364219903, "dur":52758226, "ph":"X", "name": "WaitingForWork", "cname":"thread_state_sleeping",  "args": { "durationMS":52758, "detail":"" }}
,{ "pid":1, "tid":9, "ts":12416978134, "dur":21608, "ph":"X", "name": "Exiting",  "args": { "durationMS":22, "detail":"BuildLoop" }}
,{ "pid":1, "tid":10, "ts":12364219994, "dur":52758125, "ph":"X", "name": "WaitingForWork", "cname":"thread_state_sleeping",  "args": { "durationMS":52758, "detail":"" }}
,{ "pid":1, "tid":10, "ts":12416978124, "dur":21617, "ph":"X", "name": "Exiting",  "args": { "durationMS":22, "detail":"BuildLoop" }}
,{ "pid":1, "tid":11, "ts":12364220054, "dur":52758062, "ph":"X", "name": "WaitingForWork", "cname":"thread_state_sleeping",  "args": { "durationMS":52758, "detail":"" }}
,{ "pid":1, "tid":11, "ts":12416978120, "dur":21624, "ph":"X", "name": "Exiting",  "args": { "durationMS":22, "detail":"BuildLoop" }}
,{ "pid":1, "tid":12, "ts":12364220128, "dur":52757983, "ph":"X", "name": "WaitingForWork", "cname":"thread_state_sleeping",  "args": { "durationMS":52758, "detail":"" }}
,{ "pid":1, "tid":12, "ts":12416978114, "dur":21631, "ph":"X", "name": "Exiting",  "args": { "durationMS":22, "detail":"BuildLoop" }}

]
}
