[api-updater (non-obsolete-error-filter)] 03/12/2021 09:50:04 p. m. : Starting C:/Program Files/Unity/Hub/Editor/2020.3.11f1/Editor/Data/Tools/ScriptUpdater/APIUpdater.NonObsoleteApiUpdaterDetector.exe
[api-updater (non-obsolete-error-filter)] 
----------------------------------
jit/startup time      : 4084.7914ms
moved types parse time: 280ms
candidates parse time : 3ms
C# parse time         : 2491ms
candidates check time : 161ms
console write time    : 2ms

[api-updater (non-obsolete-error-filter)] 03/12/2021 09:51:55 p. m. : Starting C:/Program Files/Unity/Hub/Editor/2020.3.11f1/Editor/Data/Tools/ScriptUpdater/APIUpdater.NonObsoleteApiUpdaterDetector.exe
[api-updater (non-obsolete-error-filter)] 
----------------------------------
jit/startup time      : 422.6851ms
moved types parse time: 330ms
candidates parse time : 9ms
C# parse time         : 1225ms
candidates check time : 235ms
console write time    : 2ms

[api-updater (non-obsolete-error-filter)] 03/12/2021 10:58:22 p. m. : Starting C:/Program Files/Unity/Hub/Editor/2020.3.11f1/Editor/Data/Tools/ScriptUpdater/APIUpdater.NonObsoleteApiUpdaterDetector.exe
[api-updater (non-obsolete-error-filter)] 
----------------------------------
jit/startup time      : 682.009ms
moved types parse time: 242ms
candidates parse time : 10ms
C# parse time         : 730ms
candidates check time : 170ms
console write time    : 2ms

[api-updater (non-obsolete-error-filter)] 03/12/2021 10:59:12 p. m. : Starting C:/Program Files/Unity/Hub/Editor/2020.3.11f1/Editor/Data/Tools/ScriptUpdater/APIUpdater.NonObsoleteApiUpdaterDetector.exe
[api-updater (non-obsolete-error-filter)] 
----------------------------------
jit/startup time      : 549.5988ms
moved types parse time: 220ms
candidates parse time : 12ms
C# parse time         : 704ms
candidates check time : 155ms
console write time    : 1ms

[api-updater (non-obsolete-error-filter)] 03/12/2021 11:04:30 p. m. : Starting C:/Program Files/Unity/Hub/Editor/2020.3.11f1/Editor/Data/Tools/ScriptUpdater/APIUpdater.NonObsoleteApiUpdaterDetector.exe
[api-updater (non-obsolete-error-filter)] Exception caught while loading types from C:\Users\danie\Documents\WEDKO\RUBEN\wedko_game\Library\ScriptAssemblies\Unity.TextMeshPro.Editor.dll (some types may not be loaded)
	Exception of type 'System.Reflection.ReflectionTypeLoadException' was thrown.
	  at (wrapper managed-to-native) System.Reflection.Assembly.GetTypes(System.Reflection.Assembly,bool)
  at System.Reflection.Assembly.GetTypes () [0x00000] in <695d1cc93cca45069c528c15c9fdd749>:0 
  at APIUpdater.NonObsoleteApiUpdaterDetector.ExtraInfoParser+<LoadTypesWithMovedFromAttributeAsync>d__3.MoveNext () [0x000c8] in <68bff7873e0e4aa69a14dfc30bebbe3e>:0 
	Could not load file or assembly 'UnityEditor.CoreModule, Version=0.0.0.0, Culture=neutral, PublicKeyToken=null' or one of its dependencies.

[api-updater (non-obsolete-error-filter)] 
----------------------------------
jit/startup time      : 282.9868ms
moved types parse time: 147ms
candidates parse time : 3ms
C# parse time         : 606ms
candidates check time : 114ms
console write time    : 1ms

[api-updater (non-obsolete-error-filter)] 03/12/2021 11:07:50 p. m. : Starting C:/Program Files/Unity/Hub/Editor/2020.3.11f1/Editor/Data/Tools/ScriptUpdater/APIUpdater.NonObsoleteApiUpdaterDetector.exe
[api-updater (non-obsolete-error-filter)] 
----------------------------------
jit/startup time      : 567.9791ms
moved types parse time: 357ms
candidates parse time : 8ms
C# parse time         : 1050ms
candidates check time : 168ms
console write time    : 1ms

[api-updater (non-obsolete-error-filter)] 03/12/2021 11:45:29 p. m. : Starting C:/Program Files/Unity/Hub/Editor/2020.3.11f1/Editor/Data/Tools/ScriptUpdater/APIUpdater.NonObsoleteApiUpdaterDetector.exe
[api-updater (non-obsolete-error-filter)] 
----------------------------------
jit/startup time      : 323.9889ms
moved types parse time: 201ms
candidates parse time : 5ms
C# parse time         : 707ms
candidates check time : 108ms
console write time    : 1ms

